{
	"imgFolder" : "/documents/10179/9974170/",
	"codeFolder" : "/documents/10179/9974168/",
	"webovyObsah" : "9269749",
	"globalCSS" : "/documents/10179/8158102/",
	"pageUrl": "https://www.telekom.sk/internet/mobilny-internet/notebooky"
}
