{
    "old": {
        "imgFolder": "/documents/10179/11905380/",
        "codeFolder": "/documents/10179/11905370/",
        "globalCSS": "/documents/10179/8158102/",
        "webovyObsah": "11906701"
    },
    "imgFolder": "https://backvm.telekom.sk/static/microsites/happy-2017-akcia/dev/assets/img/",
    "codeFolder": "https://backvm.telekom.sk/static/microsites/happy-2017-akcia/deploy/",
    "globalCSS": "https://backvm.telekom.sk/static/microsites/happy-2017-akcia/deploy/",
    "webovyObsah": "11906701"
}
