{
    "imgFolder" : "/documents/10179/6486274/",
    "codeFolder" : "https://backvm.telekom.sk/static/microsites/smarthome/dev/assets/js/",
    "codeFolder2" : "https://backvm.telekom.sk/static/microsites/smarthome/deploy/",
    "webovyObsah" : ""
}
