{
  "imgFolder": "/documents/10179/18471347/",
  "codeFolder": "/documents/10179/18471347/",
  "webovyObsah": "",
  "globalCSS": "/documents/10179/8158102/",
  "globalJSFolder": "/documents/10179/18231622/",
  "globalJSFiles": ["../../global-assets/js/global_slick.min.js"],
  "pageUrl": "/sablona"
}
