{
    "imgFolder": "/documents/10179/18558913/",
    "codeFolder": "/documents/10179/18558915/",
    "webovyObsah": "",
    "globalCSS": "/documents/10179/8158102/",
    "globalJSFolder": "/documents/10179/18231622/",
    "globalJSFiles": [
        "../../global-assets/js/global_slick.min.js"
    ],
    "pageUrl": "/sablona"
}