{
    "test": {
        "imgFolder": "/documents/10179/16427546/",
        "codeFolder": "/documents/10179/16969157/",
        "jsonFolder": "/documents/10179/16969169/",
        "popupTemplatesFolder": "/documents/10179/16969181/",
        "webovyObsah": "16428394",
        "globalCSS": "/documents/10179/8158102/",
        "pageUrl": "/sablona"
    },
    "prod": {
        "imgFolder": "/documents/10179/16427546/",
        "codeFolder": "/documents/10179/16427548/",
        "jsonFolder": "/documents/10179/16429892/",
        "popupTemplatesFolder": "/documents/10179/16433719/",
        "webovyObsah": "16659279",
        "globalCSS": "/documents/10179/8158102/",
        "pageUrl": "/sablona"
    },
    "imgFolder": "/documents/10179/16427546/",
    "codeFolder": "/documents/10179/16427548/",
    "jsonFolder": "/documents/10179/16429892/",
    "popupTemplatesFolder": "/documents/10179/16433719/",
    "webovyObsah": "16659279",
    "globalCSS": "/documents/10179/8158102/",
    "pageUrl": "/sablona"
}