{
	"prod": {
		"imgFolder": "/documents/10179/18507745/",
		"codeFolder": "/documents/10179/18507747/",
		"webovyObsah": "18508509"
	},
	"wwt": {
		"imgFolder": "/documents/10179/18466302/",
		"codeFolder": "/documents/10179/18466304/",
		"webovyObsah": "18466923"
	},
	"imgFolder": "/documents/10179/18507745/",
	"codeFolder": "/documents/10179/18507747/",
	"webovyObsah": "18508509",
	"globalCSS": "/documents/10179/8158102/",
	"globalJSFolder": "/documents/10179/18231622/",
	"globalJSFiles": [
		"../../global-assets/js/global_ratePlanes.js",
		"../../global-assets/js/global_slick.min.js",
		"../../global-assets/js/global_switchery.js"
	],
	"pageUrl": "/sablona"
}
