{
	"imgFolder" : "https://www.telekom.sk/documents/10179/485475/",
	"codeFolder" : "https://m.telekom.sk/wb/vianoce16/",
	"cssFolder" : "@import url('/documents/10179/XXX/style.css');",
	"webovyObsah" : ""
}
