{
	"imgFolder" : "/documents/10179/8998362/",
	"codeFolder" : "/documents/10179/8998370/",
	"webovyObsah" : "originaln obsah 43799 ",
	"backupcss" : "@import '/documents/10179/120910/style-universal.css/7966e082-ae80-4248-9ba1-bedf2c493d26';"
}
